{
  "Flight": [
    {
      "PutRequest": {
        "Item": {
          "Time": { "S": "2017-05-08T06:30:00.000Z" },
          "Key": { "S": "Flight00001" },
          "Origin": { "S": "DUBLIN" },
          "Destination": { "S": "LONDON" },
          "Bags": { "N": "0" }
        }
      }
    },
    {
      "PutRequest": {
        "Item": {
          "Time": { "S": "2017-05-08T12:00:00.000Z" },
          "Key": { "S": "Flight00052" },
          "Origin": { "S": "DUBLIN" },
          "Destination": { "S": "LONDON" },
          "Bags": { "N": "0" }
        }
      }
    },
    {
      "PutRequest": {
        "Item": {
          "Time": { "S": "2017-05-10T09:30:00.000Z" },
          "Key": { "S": "Flight00103" },
          "Origin": { "S": "LONDON" },
          "Destination": { "S": "DUBLIN" },
          "Bags": { "N": "0" }
        }
      }
    },
    {
      "PutRequest": {
        "Item": {
          "Time": { "S": "2017-05-09T11:30:00.000Z" },
          "Key": { "S": "Flight10001" },
          "Origin": { "S": "LONDON" },
          "Destination": { "S": "DUBLIN" },
          "Bags": { "N": "0" }
        }
      }
    },
    {
      "PutRequest": {
        "Item": {
          "Time": { "S": "2017-05-09T15:00:00.000Z" },
          "Key": { "S": "Flight10052" },
          "Origin": { "S": "LONDON" },
          "Destination": { "S": "DUBLIN" },
          "Bags": { "N": "0" }
        }
      }
    },
    {
      "PutRequest": {
        "Item": {
          "Time": { "S": "2017-05-11T12:30:00.000Z" },
          "Key": { "S": "Flight10103" },
          "Origin": { "S": "LONDON" },
          "Destination": { "S": "DUBLIN" },
          "Bags": { "N": "0" }
        }
      }
    },
    {
      "PutRequest": {
        "Item": {
          "Time": { "S": "2017-05-13T10:30:00.000Z" },
          "Key": { "S": "Flight00021" },
          "Origin": { "S": "DUBLIN" },
          "Destination": { "S": "ROME" },
          "Bags": { "N": "0" }
        }
      }
    },
    {
      "PutRequest": {
        "Item": {
          "Time": { "S": "2017-05-13T18:30:00.000Z" },
          "Key": { "S": "Flight10021" },
          "Origin": { "S": "ROME" },
          "Destination": { "S": "DUBLIN" },
          "Bags": { "N": "0" }
        }
      }
    }
  ]
}
